{
    "KPlugin": {
        "Name": "SSH Manager",
        "Name[ar]": "مدير SSH",
        "Name[az]": "SSH meneceri",
        "Name[be]": "Кіраўнік SSH",
        "Name[bg]": "Управление на SSH",
        "Name[ca@valencia]": "Gestor de SSH",
        "Name[ca]": "Gestor de SSH",
        "Name[cs]": "Správce SSH",
        "Name[de]": "SSH-Verwaltung",
        "Name[el]": "Διαχειριστής SSH",
        "Name[en_GB]": "SSH Manager",
        "Name[eo]": "SSH-Mastrumilo",
        "Name[es]": "Gestor de SSH",
        "Name[eu]": "SSH kudeatzailea",
        "Name[fi]": "SSH-hallinta",
        "Name[fr]": "Gestionnaire « SSH »",
        "Name[hu]": "SSH kezelő",
        "Name[ia]": "Gerente de SSH",
        "Name[id]": "Pengelola SSH",
        "Name[ie]": "Gerente de SSH",
        "Name[is]": "SSH-stjóri",
        "Name[it]": "Gestore SSH",
        "Name[ka]": "SSH-ის მმართველი",
        "Name[ko]": "SSH 관리자",
        "Name[nl]": "SSH-beheerder",
        "Name[nn]": "SSH-handsamar",
        "Name[pl]": "Zarządzanie SSH",
        "Name[pt]": "Gestor de SSH",
        "Name[pt_BR]": "Gerenciador de SSH",
        "Name[ro]": "Gestionar SSH",
        "Name[ru]": "Менеджер SSH",
        "Name[sk]": "Správca SSH",
        "Name[sl]": "Upravljalnik SSH",
        "Name[sv]": "SSH-hanterare",
        "Name[ta]": "SSH மேலாளர்",
        "Name[tr]": "SSH Yöneticisi",
        "Name[uk]": "Керування SSH",
        "Name[x-test]": "xxSSH Managerxx",
        "Name[zh_CN]": "SSH 管理器",
        "Name[zh_TW]": "SSH 管理程式"
    }
}
